1688936/exercicio3_aula8/simulation/qsim/exercicio3_aula8.msim.vcd
$comment
	File created using the following command:
		vcd file exercicio3_aula8.msim.vcd -direction
$end
$date
	Wed Apr 05 18:51:27 2023
$end
$version
	ModelSim Version 10.5b
$end
$timescale
	1ps
$end

$scope module exercicio3_aula8_vhd_vec_tst $end
$var wire 1 ! a [1] $end
$var wire 1 " a [0] $end
$var wire 1 # en $end
$var wire 1 $ y [3] $end
$var wire 1 % y [2] $end
$var wire 1 & y [1] $end
$var wire 1 ' y [0] $end

$scope module i1 $end
$var wire 1 ( gnd $end
$var wire 1 ) vcc $end
$var wire 1 * unknown $end
$var wire 1 + devoe $end
$var wire 1 , devclrn $end
$var wire 1 - devpor $end
$var wire 1 . ww_devoe $end
$var wire 1 / ww_devclrn $end
$var wire 1 0 ww_devpor $end
$var wire 1 1 ww_en $end
$var wire 1 2 ww_a [1] $end
$var wire 1 3 ww_a [0] $end
$var wire 1 4 ww_y [3] $end
$var wire 1 5 ww_y [2] $end
$var wire 1 6 ww_y [1] $end
$var wire 1 7 ww_y [0] $end
$var wire 1 8 \y[0]~output_o\ $end
$var wire 1 9 \y[1]~output_o\ $end
$var wire 1 : \y[2]~output_o\ $end
$var wire 1 ; \y[3]~output_o\ $end
$var wire 1 < \a[0]~input_o\ $end
$var wire 1 = \a[1]~input_o\ $end
$var wire 1 > \Mux2~0_combout\ $end
$var wire 1 ? \en~input_o\ $end
$var wire 1 @ \y[0]$latch~combout\ $end
$var wire 1 A \Mux2~1_combout\ $end
$var wire 1 B \y[1]$latch~combout\ $end
$var wire 1 C \Mux2~2_combout\ $end
$var wire 1 D \y[2]$latch~combout\ $end
$var wire 1 E \Mux0~0_combout\ $end
$var wire 1 F \y[3]$latch~combout\ $end
$upscope $end
$upscope $end
$enddefinitions $end
#0
$dumpvars
0#
0(
1)
x*
1+
1,
1-
1.
1/
10
01
x8
x9
x:
x;
0<
0=
0>
0?
x@
0A
xB
0C
xD
0E
xF
0!
0"
02
03
x4
x5
x6
x7
x$
x%
x&
x'
$end
#80000
1"
13
1<
1C
1E
#160000
0"
1!
03
12
1=
0<
1A
0C
#240000
1"
13
1<
1>
0A
#320000
0"
0!
03
02
0=
0<
0>
0E
#400000
1"
1#
13
11
1?
1<
1C
1E
0@
0B
0D
1F
0F
1D
1;
0:
09
08
14
05
06
07
1:
0;
0'
0&
0%
1$
15
04
1%
0$
#480000
0"
1!
03
12
1=
0<
1A
0C
0D
1B
19
0:
16
05
1&
0%
#560000
1"
13
1<
1>
0A
0B
1@
18
09
17
06
1'
0&
#640000
0"
0!
03
02
0=
0<
0>
0E
1F
0@
08
1;
07
14
0'
1$
#720000
1"
13
1<
1C
1E
0F
1D
1:
0;
15
04
1%
0$
#800000
0"
1!
0#
03
12
01
0?
1=
0<
1A
0C
#880000
1"
13
1<
1>
0A
#960000
0"
0!
03
02
0=
0<
0>
0E
