1688936/teste123/simulation/qsim/teste123.msim.vcd
$comment
	File created using the following command:
		vcd file teste123.msim.vcd -direction
$end
$date
	Thu Mar 16 15:48:27 2023
$end
$version
	ModelSim Version 10.5b
$end
$timescale
	1ps
$end

$scope module teste123_vhd_vec_tst $end
$var wire 1 ! IN1 $end
$var wire 1 " IN2 $end
$var wire 1 # IN3 $end
$var wire 1 $ saida1 $end
$var wire 1 % saida2 $end
$var wire 1 & saida3 $end

$scope module i1 $end
$var wire 1 ' gnd $end
$var wire 1 ( vcc $end
$var wire 1 ) unknown $end
$var wire 1 * devoe $end
$var wire 1 + devclrn $end
$var wire 1 , devpor $end
$var wire 1 - ww_devoe $end
$var wire 1 . ww_devclrn $end
$var wire 1 / ww_devpor $end
$var wire 1 0 ww_IN1 $end
$var wire 1 1 ww_IN2 $end
$var wire 1 2 ww_IN3 $end
$var wire 1 3 ww_saida1 $end
$var wire 1 4 ww_saida2 $end
$var wire 1 5 ww_saida3 $end
$var wire 1 6 \saida1~output_o\ $end
$var wire 1 7 \saida2~output_o\ $end
$var wire 1 8 \saida3~output_o\ $end
$var wire 1 9 \IN1~input_o\ $end
$var wire 1 : \IN2~input_o\ $end
$var wire 1 ; \IN3~input_o\ $end
$var wire 1 < \saida1~0_combout\ $end
$var wire 1 = \saida2~0_combout\ $end
$var wire 1 > \saida2~1_combout\ $end
$var wire 1 ? \ALT_INV_IN2~input_o\ $end
$var wire 1 @ \ALT_INV_IN1~input_o\ $end
$var wire 1 A \ALT_INV_IN3~input_o\ $end
$upscope $end
$upscope $end
$enddefinitions $end
#0
$dumpvars
0!
1"
0#
0$
1%
1&
0'
1(
x)
1*
1+
1,
1-
1.
1/
00
11
02
03
14
15
06
17
18
09
1:
0;
0<
1=
1>
0?
1@
1A
$end
#50000
1!
10
19
0@
1<
0=
0>
08
07
16
05
04
13
0&
0%
1$
#100000
0!
0"
00
01
0:
09
1@
1?
0<
06
03
0$
#150000
1!
1#
10
12
1;
19
0@
0A
1<
1>
18
16
15
13
1&
1$
#200000
0!
1"
00
11
1:
09
1@
0?
#250000
1!
10
19
0@
0>
08
05
0&
#300000
0!
0"
0#
00
01
02
0;
0:
09
1@
1?
1A
0<
06
03
0$
#350000
1!
10
19
0@
1=
1>
18
17
15
14
1&
1%
#400000
0!
1"
00
11
1:
09
1@
0?
#450000
1!
1#
10
12
1;
19
0@
0A
1<
0=
0>
08
07
16
05
04
13
0&
0%
1$
#500000
0!
0"
00
01
0:
09
1@
1?
#550000
1!
10
19
0@
1>
18
15
1&
#600000
0!
1"
0#
00
11
02
0;
1:
09
1@
0?
1A
0<
1=
17
06
14
03
1%
0$
#650000
1!
10
19
0@
1<
0=
0>
08
07
16
05
04
13
0&
0%
1$
#700000
0!
0"
00
01
0:
09
1@
1?
0<
06
03
0$
#750000
1!
1#
10
12
1;
19
0@
0A
1<
1>
18
16
15
13
1&
1$
#800000
0!
1"
00
11
1:
09
1@
0?
#850000
1!
10
19
0@
0>
08
05
0&
#900000
0!
0"
0#
00
01
02
0;
0:
09
1@
1?
1A
0<
06
03
0$
#950000
1!
10
19
0@
1=
1>
18
17
15
14
1&
1%
