1688936/exercicio2_aula8/simulation/qsim/exercicio2_aula8.msim.vcd
$comment
	File created using the following command:
		vcd file exercicio2_aula8.msim.vcd -direction
$end
$date
	Wed Apr 05 18:28:33 2023
$end
$version
	ModelSim Version 10.5b
$end
$timescale
	1ps
$end

$scope module exercicio2_aula8_vhd_vec_tst $end
$var wire 1 ! clk $end
$var wire 1 " d $end
$var wire 1 # q $end
$var wire 1 $ q_guarded $end
$var wire 1 % rst $end

$scope module i1 $end
$var wire 1 & gnd $end
$var wire 1 ' vcc $end
$var wire 1 ( unknown $end
$var wire 1 ) devoe $end
$var wire 1 * devclrn $end
$var wire 1 + devpor $end
$var wire 1 , ww_devoe $end
$var wire 1 - ww_devclrn $end
$var wire 1 . ww_devpor $end
$var wire 1 / ww_d $end
$var wire 1 0 ww_clk $end
$var wire 1 1 ww_rst $end
$var wire 1 2 ww_q_guarded $end
$var wire 1 3 ww_q $end
$var wire 1 4 \q_guarded~output_o\ $end
$var wire 1 5 \q~output_o\ $end
$var wire 1 6 \d~input_o\ $end
$var wire 1 7 \rst~input_o\ $end
$var wire 1 8 \q_guarded~0_combout\ $end
$var wire 1 9 \clk~input_o\ $end
$var wire 1 : \q_guarded$latch~combout\ $end
$upscope $end
$upscope $end
$enddefinitions $end
#0
$dumpvars
0!
0"
0#
x$
0%
0&
1'
x(
1)
1*
1+
1,
1-
1.
0/
00
01
x2
03
x4
05
06
07
08
09
x:
$end
#80000
1"
1/
16
18
15
13
1#
#160000
0"
1!
0/
10
19
06
08
1:
0:
05
03
14
0#
12
04
1$
02
0$
#240000
1"
1/
16
18
1:
15
13
1#
14
12
1$
#320000
0"
0!
0/
00
09
06
08
05
03
0#
#400000
1"
1/
16
18
15
13
1#
#480000
0"
1!
0/
10
19
06
08
0:
05
03
0#
04
02
0$
#560000
1"
1%
1/
11
17
16
15
13
1#
#640000
0"
0!
0/
00
09
06
05
03
0#
#720000
1"
1/
16
15
13
1#
#800000
0"
1!
0/
10
19
06
05
03
0#
#880000
1"
1/
16
15
13
1#
#960000
0"
0!
0/
00
09
06
05
03
0#
