1688936/Aula6_Codigo_Concorrente_WITH-SELECT-WHEN/simulation/qsim/Aula6_Codigo_Concorrente_WITH-SELECT-WHEN.msim.vcd
$comment
	File created using the following command:
		vcd file Aula6_Codigo_Concorrente_WITH-SELECT-WHEN.msim.vcd -direction
$end
$date
	Thu Mar 23 15:15:18 2023
$end
$version
	ModelSim Version 10.5b
$end
$timescale
	1ps
$end

$scope module exercicio2_vhd_vec_tst $end
$var wire 1 ! A [7] $end
$var wire 1 " A [6] $end
$var wire 1 # A [5] $end
$var wire 1 $ A [4] $end
$var wire 1 % A [3] $end
$var wire 1 & A [2] $end
$var wire 1 ' A [1] $end
$var wire 1 ( A [0] $end
$var wire 1 ) B [7] $end
$var wire 1 * B [6] $end
$var wire 1 + B [5] $end
$var wire 1 , B [4] $end
$var wire 1 - B [3] $end
$var wire 1 . B [2] $end
$var wire 1 / B [1] $end
$var wire 1 0 B [0] $end
$var wire 1 1 C [7] $end
$var wire 1 2 C [6] $end
$var wire 1 3 C [5] $end
$var wire 1 4 C [4] $end
$var wire 1 5 C [3] $end
$var wire 1 6 C [2] $end
$var wire 1 7 C [1] $end
$var wire 1 8 C [0] $end
$var wire 1 9 D [7] $end
$var wire 1 : D [6] $end
$var wire 1 ; D [5] $end
$var wire 1 < D [4] $end
$var wire 1 = D [3] $end
$var wire 1 > D [2] $end
$var wire 1 ? D [1] $end
$var wire 1 @ D [0] $end
$var wire 1 A sel [1] $end
$var wire 1 B sel [0] $end
$var wire 1 C y [7] $end
$var wire 1 D y [6] $end
$var wire 1 E y [5] $end
$var wire 1 F y [4] $end
$var wire 1 G y [3] $end
$var wire 1 H y [2] $end
$var wire 1 I y [1] $end
$var wire 1 J y [0] $end

$scope module i1 $end
$var wire 1 K gnd $end
$var wire 1 L vcc $end
$var wire 1 M unknown $end
$var wire 1 N devoe $end
$var wire 1 O devclrn $end
$var wire 1 P devpor $end
$var wire 1 Q ww_devoe $end
$var wire 1 R ww_devclrn $end
$var wire 1 S ww_devpor $end
$var wire 1 T ww_A [7] $end
$var wire 1 U ww_A [6] $end
$var wire 1 V ww_A [5] $end
$var wire 1 W ww_A [4] $end
$var wire 1 X ww_A [3] $end
$var wire 1 Y ww_A [2] $end
$var wire 1 Z ww_A [1] $end
$var wire 1 [ ww_A [0] $end
$var wire 1 \ ww_B [7] $end
$var wire 1 ] ww_B [6] $end
$var wire 1 ^ ww_B [5] $end
$var wire 1 _ ww_B [4] $end
$var wire 1 ` ww_B [3] $end
$var wire 1 a ww_B [2] $end
$var wire 1 b ww_B [1] $end
$var wire 1 c ww_B [0] $end
$var wire 1 d ww_C [7] $end
$var wire 1 e ww_C [6] $end
$var wire 1 f ww_C [5] $end
$var wire 1 g ww_C [4] $end
$var wire 1 h ww_C [3] $end
$var wire 1 i ww_C [2] $end
$var wire 1 j ww_C [1] $end
$var wire 1 k ww_C [0] $end
$var wire 1 l ww_D [7] $end
$var wire 1 m ww_D [6] $end
$var wire 1 n ww_D [5] $end
$var wire 1 o ww_D [4] $end
$var wire 1 p ww_D [3] $end
$var wire 1 q ww_D [2] $end
$var wire 1 r ww_D [1] $end
$var wire 1 s ww_D [0] $end
$var wire 1 t ww_sel [1] $end
$var wire 1 u ww_sel [0] $end
$var wire 1 v ww_y [7] $end
$var wire 1 w ww_y [6] $end
$var wire 1 x ww_y [5] $end
$var wire 1 y ww_y [4] $end
$var wire 1 z ww_y [3] $end
$var wire 1 { ww_y [2] $end
$var wire 1 | ww_y [1] $end
$var wire 1 } ww_y [0] $end
$var wire 1 ~ \y[0]~output_o\ $end
$var wire 1 !! \y[1]~output_o\ $end
$var wire 1 "! \y[2]~output_o\ $end
$var wire 1 #! \y[3]~output_o\ $end
$var wire 1 $! \y[4]~output_o\ $end
$var wire 1 %! \y[5]~output_o\ $end
$var wire 1 &! \y[6]~output_o\ $end
$var wire 1 '! \y[7]~output_o\ $end
$var wire 1 (! \D[0]~input_o\ $end
$var wire 1 )! \C[0]~input_o\ $end
$var wire 1 *! \B[0]~input_o\ $end
$var wire 1 +! \A[0]~input_o\ $end
$var wire 1 ,! \sel[0]~input_o\ $end
$var wire 1 -! \sel[1]~input_o\ $end
$var wire 1 .! \Mux7~0_combout\ $end
$var wire 1 /! \D[1]~input_o\ $end
$var wire 1 0! \C[1]~input_o\ $end
$var wire 1 1! \B[1]~input_o\ $end
$var wire 1 2! \A[1]~input_o\ $end
$var wire 1 3! \Mux6~0_combout\ $end
$var wire 1 4! \D[2]~input_o\ $end
$var wire 1 5! \C[2]~input_o\ $end
$var wire 1 6! \B[2]~input_o\ $end
$var wire 1 7! \A[2]~input_o\ $end
$var wire 1 8! \Mux5~0_combout\ $end
$var wire 1 9! \D[3]~input_o\ $end
$var wire 1 :! \C[3]~input_o\ $end
$var wire 1 ;! \B[3]~input_o\ $end
$var wire 1 <! \A[3]~input_o\ $end
$var wire 1 =! \Mux4~0_combout\ $end
$var wire 1 >! \D[4]~input_o\ $end
$var wire 1 ?! \C[4]~input_o\ $end
$var wire 1 @! \B[4]~input_o\ $end
$var wire 1 A! \A[4]~input_o\ $end
$var wire 1 B! \Mux3~0_combout\ $end
$var wire 1 C! \D[5]~input_o\ $end
$var wire 1 D! \C[5]~input_o\ $end
$var wire 1 E! \B[5]~input_o\ $end
$var wire 1 F! \A[5]~input_o\ $end
$var wire 1 G! \Mux2~0_combout\ $end
$var wire 1 H! \D[6]~input_o\ $end
$var wire 1 I! \C[6]~input_o\ $end
$var wire 1 J! \B[6]~input_o\ $end
$var wire 1 K! \A[6]~input_o\ $end
$var wire 1 L! \Mux1~0_combout\ $end
$var wire 1 M! \D[7]~input_o\ $end
$var wire 1 N! \C[7]~input_o\ $end
$var wire 1 O! \B[7]~input_o\ $end
$var wire 1 P! \A[7]~input_o\ $end
$var wire 1 Q! \Mux0~0_combout\ $end
$var wire 1 R! \ALT_INV_A[7]~input_o\ $end
$var wire 1 S! \ALT_INV_B[7]~input_o\ $end
$var wire 1 T! \ALT_INV_C[7]~input_o\ $end
$var wire 1 U! \ALT_INV_D[7]~input_o\ $end
$var wire 1 V! \ALT_INV_A[6]~input_o\ $end
$var wire 1 W! \ALT_INV_B[6]~input_o\ $end
$var wire 1 X! \ALT_INV_C[6]~input_o\ $end
$var wire 1 Y! \ALT_INV_D[6]~input_o\ $end
$var wire 1 Z! \ALT_INV_A[5]~input_o\ $end
$var wire 1 [! \ALT_INV_B[5]~input_o\ $end
$var wire 1 \! \ALT_INV_C[5]~input_o\ $end
$var wire 1 ]! \ALT_INV_D[5]~input_o\ $end
$var wire 1 ^! \ALT_INV_A[4]~input_o\ $end
$var wire 1 _! \ALT_INV_B[4]~input_o\ $end
$var wire 1 `! \ALT_INV_C[4]~input_o\ $end
$var wire 1 a! \ALT_INV_D[4]~input_o\ $end
$var wire 1 b! \ALT_INV_A[3]~input_o\ $end
$var wire 1 c! \ALT_INV_B[3]~input_o\ $end
$var wire 1 d! \ALT_INV_C[3]~input_o\ $end
$var wire 1 e! \ALT_INV_D[3]~input_o\ $end
$var wire 1 f! \ALT_INV_A[2]~input_o\ $end
$var wire 1 g! \ALT_INV_B[2]~input_o\ $end
$var wire 1 h! \ALT_INV_C[2]~input_o\ $end
$var wire 1 i! \ALT_INV_D[2]~input_o\ $end
$var wire 1 j! \ALT_INV_A[1]~input_o\ $end
$var wire 1 k! \ALT_INV_B[1]~input_o\ $end
$var wire 1 l! \ALT_INV_C[1]~input_o\ $end
$var wire 1 m! \ALT_INV_D[1]~input_o\ $end
$var wire 1 n! \ALT_INV_sel[1]~input_o\ $end
$var wire 1 o! \ALT_INV_sel[0]~input_o\ $end
$var wire 1 p! \ALT_INV_A[0]~input_o\ $end
$var wire 1 q! \ALT_INV_B[0]~input_o\ $end
$var wire 1 r! \ALT_INV_C[0]~input_o\ $end
$var wire 1 s! \ALT_INV_D[0]~input_o\ $end
$upscope $end
$upscope $end
$enddefinitions $end
#0
$dumpvars
0K
1L
xM
1N
1O
1P
1Q
1R
1S
0~
0!!
0"!
0#!
0$!
0%!
1&!
1'!
0(!
0)!
0*!
1+!
0,!
0-!
0.!
0/!
00!
01!
12!
03!
04!
05!
16!
07!
08!
09!
0:!
1;!
0<!
0=!
0>!
1?!
0@!
0A!
0B!
0C!
1D!
0E!
0F!
0G!
1H!
0I!
0J!
0K!
1L!
1M!
0N!
0O!
0P!
1Q!
1R!
1S!
1T!
0U!
1V!
1W!
1X!
0Y!
1Z!
1[!
0\!
1]!
1^!
1_!
0`!
1a!
1b!
0c!
1d!
1e!
1f!
0g!
1h!
1i!
0j!
1k!
1l!
1m!
1n!
1o!
0p!
1q!
1r!
1s!
0!
0"
0#
0$
0%
0&
1'
1(
0)
0*
0+
0,
1-
1.
0/
00
01
02
13
14
05
06
07
08
19
1:
0;
0<
0=
0>
0?
0@
0A
0B
0T
0U
0V
0W
0X
0Y
1Z
1[
0\
0]
0^
0_
1`
1a
0b
0c
0d
0e
1f
1g
0h
0i
0j
0k
1l
1m
0n
0o
0p
0q
0r
0s
0t
0u
1v
1w
0x
0y
0z
0{
0|
0}
1C
1D
0E
0F
0G
0H
0I
0J
$end
#80000
1B
1u
1,!
0o!
1B!
1G!
0L!
0Q!
0'!
0&!
1%!
1$!
0v
0w
1x
1y
1F
1E
0D
0C
#160000
0B
1A
0u
1t
1-!
0,!
1o!
0n!
18!
1=!
0B!
0G!
0%!
0$!
1#!
1"!
0x
0y
1z
1{
1H
1G
0F
0E
#240000
1B
1u
1,!
0o!
1.!
13!
08!
0=!
0#!
0"!
1!!
1~
0z
0{
1|
1}
1J
1I
0H
0G
#320000
0B
0A
0u
0t
0-!
0,!
1o!
1n!
0.!
03!
1L!
1Q!
1'!
1&!
0!!
0~
1v
1w
0|
0}
0J
0I
1D
1C
#400000
1B
1u
1,!
0o!
1B!
1G!
0L!
0Q!
0'!
0&!
1%!
1$!
0v
0w
1x
1y
1F
1E
0D
0C
#480000
0B
1A
0u
1t
1-!
0,!
1o!
0n!
18!
1=!
0B!
0G!
0%!
0$!
1#!
1"!
0x
0y
1z
1{
1H
1G
0F
0E
#560000
1B
1u
1,!
0o!
1.!
13!
08!
0=!
0#!
0"!
1!!
1~
0z
0{
1|
1}
1J
1I
0H
0G
#640000
0B
0A
0u
0t
0-!
0,!
1o!
1n!
0.!
03!
1L!
1Q!
1'!
1&!
0!!
0~
1v
1w
0|
0}
0J
0I
1D
1C
#720000
1B
1u
1,!
0o!
1B!
1G!
0L!
0Q!
0'!
0&!
1%!
1$!
0v
0w
1x
1y
1F
1E
0D
0C
#800000
0B
1A
0u
1t
1-!
0,!
1o!
0n!
18!
1=!
0B!
0G!
0%!
0$!
1#!
1"!
0x
0y
1z
1{
1H
1G
0F
0E
#880000
1B
1u
1,!
0o!
1.!
13!
08!
0=!
0#!
0"!
1!!
1~
0z
0{
1|
1}
1J
1I
0H
0G
#960000
0B
0A
0u
0t
0-!
0,!
1o!
1n!
0.!
03!
1L!
1Q!
1'!
1&!
0!!
0~
1v
1w
0|
0}
0J
0I
1D
1C
